^C:\TEMP\FISICAJOGOS\FISICA\PROJETOFISICA\PROJETOFISICA\GAMEMANAGER.CPP|C:\TEMP\FISICAJOGOS\FISICA\PROJETOFISICA\PROJETOFISICA\MAIN.CPP
C:\TEMP\FISICAJOGOS\FISICA\PROJETOFISICA\PROJETOFISICA\X64\DEBUG\VC141.PDB
C:\TEMP\FISICAJOGOS\FISICA\PROJETOFISICA\PROJETOFISICA\X64\DEBUG\VC141.IDB
C:\TEMP\FISICAJOGOS\FISICA\PROJETOFISICA\PROJETOFISICA\X64\DEBUG\MAIN.OBJ
C:\TEMP\FISICAJOGOS\FISICA\PROJETOFISICA\PROJETOFISICA\X64\DEBUG\GAMEMANAGER.OBJ
^C:\TEMP\FISICAJOGOS\FISICA\PROJETOFISICA\PROJETOFISICA\GAMEMANAGER.CPP
C:\TEMP\FISICAJOGOS\FISICA\PROJETOFISICA\PROJETOFISICA\X64\DEBUG\VC141.PDB
^C:\TEMP\FISICAJOGOS\FISICA\PROJETOFISICA\PROJETOFISICA\DRAWOBJECTS.CPP|C:\TEMP\FISICAJOGOS\FISICA\PROJETOFISICA\PROJETOFISICA\MAIN.CPP
C:\TEMP\FISICAJOGOS\FISICA\PROJETOFISICA\PROJETOFISICA\X64\DEBUG\VC141.PDB
C:\TEMP\FISICAJOGOS\FISICA\PROJETOFISICA\PROJETOFISICA\X64\DEBUG\VC141.IDB
C:\TEMP\FISICAJOGOS\FISICA\PROJETOFISICA\PROJETOFISICA\X64\DEBUG\MAIN.OBJ
C:\TEMP\FISICAJOGOS\FISICA\PROJETOFISICA\PROJETOFISICA\X64\DEBUG\DRAWOBJECTS.OBJ
^C:\TEMP\FISICAJOGOS\FISICA\PROJETOFISICA\PROJETOFISICA\MAIN.CPP
C:\TEMP\FISICAJOGOS\FISICA\PROJETOFISICA\PROJETOFISICA\X64\DEBUG\VC141.PDB
^C:\TEMP\FISICAJOGOS\FISICA\PROJETOFISICA\PROJETOFISICA\DRAWOBJECTS.CPP
C:\TEMP\FISICAJOGOS\FISICA\PROJETOFISICA\PROJETOFISICA\X64\DEBUG\VC141.PDB
C:\TEMP\FISICAJOGOS\FISICA\PROJETOFISICA\PROJETOFISICA\X64\DEBUG\VC141.IDB
C:\TEMP\FISICAJOGOS\FISICA\PROJETOFISICA\PROJETOFISICA\X64\DEBUG\DRAWOBJECTS.OBJ
